{
  "quiz": [
    {
      "qid": 1,
      "question": "1 Which of the following articles are denied to the aliens living in India ?",
      "a1": "Bitmap bitmap = Picasso.with(context).load(url).get(); ImageView imageView = (ImageView) remoteViews.findById(R.id.image); imageView.setImageBitmap(bitmap);",
      "a2": "http://www.123mobilewallpapers.com/wp-content/uploads/2014/07/romantic_beach_couple.jpg",
      "a3": "http://3-dot-mangoboxfcm.appspot.com/wall/bussinessCategory/like.png",
      "a4": "http://3-dot-mangoboxfcm.appspot.com/wall/bussinessCategory/like.png"
    },
    {
      "qid": 2,
      "question": "2 Which of the following articles are denied to the aliens living in India ?",
      "a1": "Bitmap bitmap = Picasso.with(context).load(url).get(); ImageView imageView = (ImageView) remoteViews.findById(R.id.image); imageView.setImageBitmap(bitmap);",
      "a2": "http://www.desktop-background.com/download/540x960/2014/10/13/839267_romantic-and-cute-love-couple-hd-wallpapers_1920x1200_h.jpg",
      "a3": "http://3-dot-mangoboxfcm.appspot.com/wall/bussinessCategory/like.png",
      "a4": "http://3-dot-mangoboxfcm.appspot.com/wall/bussinessCategory/like.png"
    },
    {
      "qid": 3,
      "question": "3 Which of the following articles are denied to the aliens living in India ?",
      "a1": "ans3",
      "a2": "http://geodavephotography.com/images/romantic-love-wallpaper/36729362-romantic-love-wallpaper.jpg",
      "a3": "http://3-dot-mangoboxfcm.appspot.com/wall/bussinessCategory/like.png",
      "a4": "http://3-dot-mangoboxfcm.appspot.com/wall/bussinessCategory/like.png"
    },
    {
      "qid": 4,
      "question": "4 Which of the following articles are denied to the aliens living in India ?",
      "a1": "ans4",
      "a2": "http://www.123mobilewallpapers.com/wp-content/uploads/2014/07/romantic_beach_couple.jpg",
      "a3": "http://3-dot-mangoboxfcm.appspot.com/wall/bussinessCategory/like.png",
      "a4": "http://3-dot-mangoboxfcm.appspot.com/wall/bussinessCategory/like.png"
    },
    {
      "qid": 5,
      "question": "5 Which of the following articles are denied to the aliens living in India ?",
      "a1": "ans5",
      "a2": "http://www.desktop-background.com/download/540x960/2014/10/13/839267_romantic-and-cute-love-couple-hd-wallpapers_1920x1200_h.jpg",
      "a3": "http://3-dot-mangoboxfcm.appspot.com/wall/bussinessCategory/like.png",
      "a4": "http://3-dot-mangoboxfcm.appspot.com/wall/bussinessCategory/like.png"
    }
  ]
}